…
The data frame is then filtered to show just members, and sorted by the
number of rides.

``` r
members <- df %>% 
  filter(member_casual == "member") %>% 
  arrange(-number_of_rides)
head(members, 30)
```

    ## # A tibble: 30 × 6
    ##    member_casual start_station_id start_station_name total_rides number_of_rides
    ##    <chr>         <chr>            <chr>                    <int>           <int>
    ##  1 member        KA1503000043     Kingsbury St & Ki…     2718466           23702
    ##  2 member        WL-012           Clinton St & Wash…     2718466           23459
    ##  3 member        TA1307000039     Clark St & Elm St      2718466           22554
    ##  4 member        TA1308000050     Wells St & Concor…     2718466           18763
    ##  5 member        TA1305000032     Clinton St & Madi…     2718466           18349
    ##  6 member        KA1504000135     Wells St & Elm St      2718466           18107
    ##  7 member        KA1503000071     University Ave & …     2718466           17533
    ##  8 member        13332            Loomis St & Lexin…     2718466           17288
    ##  9 member        KA1503000014     Ellis Ave & 60th …     2718466           16506
    ## 10 member        13137            Broadway & Barry …     2718466           16451
    ## # ℹ 20 more rows
    ## # ℹ 1 more variable: percentage_of_rides <dbl>

The same is then done for casual riders.

``` r
casual_riders <- df %>% 
  filter(member_casual == "casual") %>% 
  arrange(-number_of_rides)
head(casual_riders, 30)
```

    ## # A tibble: 30 × 6
    ##    member_casual start_station_id start_station_name total_rides number_of_rides
    ##    <chr>         <chr>            <chr>                    <int>           <int>
    ##  1 casual        13022            Streeter Dr & Gra…     1497410           42307
    ##  2 casual        13300            DuSable Lake Shor…     1497410           27985
    ##  3 casual        13042            Michigan Ave & Oa…     1497410           20604
    ##  4 casual        LF-005           DuSable Lake Shor…     1497410           18393
    ##  5 casual        13008            Millennium Park        1497410           18355
    ##  6 casual        15544            Shedd Aquarium         1497410           16528
    ##  7 casual        TA1308000001     Theater on the La…     1497410           14736
    ##  8 casual        KA1503000064     Dusable Harbor         1497410           14182
    ##  9 casual        13431            Adler Planetarium      1497410           11069
    ## 10 casual        TA1308000012     Montrose Harbor        1497410           10647
    ## # ℹ 20 more rows
    ## # ℹ 1 more variable: percentage_of_rides <dbl>
…
df <- end_ride_nums %>% 
  group_by(member_casual) %>% 
  reframe(end_station_id, end_station_name, total_rides = sum(number_of_rides), number_of_rides, percentage_of_rides = (number_of_rides / total_rides) * 100)
```

Filter and sort for members.

``` r
members <- df %>% 
  filter(member_casual == "member") %>% 
  arrange(-number_of_rides)
head(members, 30)
```

    ## # A tibble: 30 × 6
    ##    member_casual end_station_id end_station_name     total_rides number_of_rides
    ##    <chr>         <chr>          <chr>                      <int>           <int>
    ##  1 member        WL-012         Clinton St & Washin…     2718466           24672
    ##  2 member        KA1503000043   Kingsbury St & Kinz…     2718466           23751
    ##  3 member        TA1307000039   Clark St & Elm St        2718466           22450
    ##  4 member        TA1305000032   Clinton St & Madiso…     2718466           19866
    ##  5 member        TA1308000050   Wells St & Concord …     2718466           19655
    ##  6 member        KA1504000135   Wells St & Elm St        2718466           18243
    ##  7 member        KA1503000071   University Ave & 57…     2718466           17887
    ##  8 member        13137          Broadway & Barry Ave     2718466           17142
    ##  9 member        13332          Loomis St & Lexingt…     2718466           17062
    ## 10 member        21544          State St & Chicago …     2718466           16771
    ## # ℹ 20 more rows
    ## # ℹ 1 more variable: percentage_of_rides <dbl>

Filter and sort for casual riders.

``` r
casual_riders <- df %>% 
  filter(member_casual == "casual") %>% 
  arrange(-number_of_rides)
head(casual_riders, 30)
```

    ## # A tibble: 30 × 6
    ##    member_casual end_station_id end_station_name     total_rides number_of_rides
    ##    <chr>         <chr>          <chr>                      <int>           <int>
    ##  1 casual        13022          Streeter Dr & Grand…     1497410           46657
    ##  2 casual        13300          DuSable Lake Shore …     1497410           25629
    ##  3 casual        13042          Michigan Ave & Oak …     1497410           21992
    ##  4 casual        LF-005         DuSable Lake Shore …     1497410           21957
    ##  5 casual        13008          Millennium Park          1497410           20793
    ##  6 casual        TA1308000001   Theater on the Lake      1497410           16379
    ##  7 casual        15544          Shedd Aquarium           1497410           14819
    ##  8 casual        KA1503000064   Dusable Harbor           1497410           12504
    ##  9 casual        TA1308000050   Wells St & Concord …     1497410           10675
    ## 10 casual        TA1308000012   Montrose Harbor          1497410           10594
    ## # ℹ 20 more rows
    ## # ℹ 1 more variable: percentage_of_rides <dbl>
…
