…
This summary shows that there is a minimum of 0.00 for the end
latititude (end_lat column) and a maximum of 0.00 for the end longitude
(end_lng). These values are obviously wrong so need investigating. First
the data is sorted by the end_lat column.

``` r
bike_share_2023_cleaned %>% 
  arrange(end_lat)
```

    ## # A tibble: 4,331,707 × 13
    ##    ride_id          rideable_type started_at          ended_at           
    ##    <chr>            <chr>         <dttm>              <dttm>             
    ##  1 ADFF57D27B5BF9D2 classic_bike  2023-06-15 09:38:07 2023-06-15 09:42:57
    ##  2 873D50153BBC0686 electric_bike 2023-06-15 12:38:05 2023-06-15 12:38:41
    ##  3 43107577DF9B498D classic_bike  2023-08-21 18:43:22 2023-08-21 22:05:55
    ##  4 43E7A9708C3CBBDA electric_bike 2023-01-11 15:23:39 2023-01-11 15:33:27
    ##  5 041B44FC0477EA71 classic_bike  2023-01-18 15:38:26 2023-01-18 15:43:20
    ##  6 48B846D268078D39 electric_bike 2023-01-20 15:21:36 2023-01-20 15:26:02
    ##  7 0AED4FDA2D51C727 electric_bike 2023-01-25 15:12:36 2023-01-25 15:18:14
    ##  8 55ADC86FBDED24A6 electric_bike 2023-02-01 15:12:58 2023-02-01 15:17:51
    ##  9 9868ABFA89FBEAA2 classic_bike  2023-02-02 15:14:00 2023-02-02 15:20:11
    ## 10 58B3B6898CD49146 classic_bike  2023-02-06 07:07:08 2023-02-06 07:13:25
    ## # ℹ 4,331,697 more rows
    ## # ℹ 9 more variables: start_station_name <chr>, start_station_id <chr>,
    ## #   end_station_name <chr>, end_station_id <chr>, start_lat <dbl>,
    ## #   start_lng <dbl>, end_lat <dbl>, end_lng <dbl>, member_casual <chr>

There are three rows with end_lat and end_lng equal to zero. The first
two seem to be some sort of test, with the ride time at less than five
minutes and a test end station. These rows can be removed. The third row
has a valid end_station_name and end_station_id (653B) so it should be
possible to replace the end_lat and end_lng with the correct values.
Filter the data to find the correct latitude and longitude for station
653B.

``` r
bike_share_2023_cleaned %>% 
  filter(end_station_id == "653B")
```

    ## # A tibble: 296 × 13
    ##    ride_id          rideable_type started_at          ended_at           
    ##    <chr>            <chr>         <dttm>              <dttm>             
    ##  1 7B974C5BD11611D6 electric_bike 2023-03-02 16:23:09 2023-03-02 16:31:35
    ##  2 DE1A793BD09DDD0C electric_bike 2023-03-04 16:03:08 2023-03-04 16:11:20
    ##  3 5A4270332896C439 classic_bike  2023-03-05 18:46:14 2023-03-05 19:18:07
    ##  4 D0B96B32A34EC340 classic_bike  2023-03-13 19:35:45 2023-03-13 19:49:12
    ##  5 9FE2BD2EF5871C1C classic_bike  2023-03-16 08:06:23 2023-03-16 08:15:15
    ##  6 1E8EC92FB7FB4F8C classic_bike  2023-03-21 11:35:36 2023-03-21 11:42:30
    ##  7 99B1617F0EE74185 classic_bike  2023-03-28 11:32:50 2023-03-28 11:38:59
    ##  8 D308A0A11EEE19BB classic_bike  2023-03-29 11:02:50 2023-03-29 11:18:28
    ##  9 4608A431D7F79D97 classic_bike  2023-03-30 17:16:50 2023-03-30 17:30:25
    ## 10 18AA4CF5C227304F classic_bike  2023-04-03 17:13:19 2023-04-03 17:25:13
    ## # ℹ 286 more rows
    ## # ℹ 9 more variables: start_station_name <chr>, start_station_id <chr>,
    ## #   end_station_name <chr>, end_station_id <chr>, start_lat <dbl>,
    ## #   start_lng <dbl>, end_lat <dbl>, end_lng <dbl>, member_casual <chr>
…
Next the times are checked to make sure that the ended_at times are all
later than the corresponding started_at times. This should only be
possible on 2023-11-05 when the daylight saving time ended and the
clocks went back.

``` r
bike_share_2023_cleaned %>% 
  filter(ended_at < started_at)
```

    ## # A tibble: 66 × 13
    ##    ride_id          rideable_type started_at          ended_at           
    ##    <chr>            <chr>         <dttm>              <dttm>             
    ##  1 7A4D237E2C99D424 electric_bike 2023-04-04 17:15:08 2023-04-04 17:15:05
    ##  2 81E1C5175FA5A23D classic_bike  2023-04-19 14:47:18 2023-04-19 14:47:14
    ##  3 0063C3704F56EC55 electric_bike 2023-04-27 07:51:14 2023-04-27 07:51:09
    ##  4 00AC4040E25E347E classic_bike  2023-05-07 15:54:58 2023-05-07 15:54:47
    ##  5 97BF63D06721A3B9 classic_bike  2023-05-13 18:08:15 2023-05-13 18:08:09
    ##  6 579596DD4C7C7538 classic_bike  2023-05-23 17:39:38 2023-05-23 17:39:35
    ##  7 A769AB597DEA18C4 classic_bike  2023-05-27 05:31:51 2023-05-27 05:31:37
    ##  8 934174DB8E2AD791 classic_bike  2023-05-29 17:34:21 2023-05-29 17:34:09
    ##  9 FAC4E90497237BD1 classic_bike  2023-06-01 16:47:50 2023-06-01 16:47:49
    ## 10 0F2C8AC039F63D8F electric_bike 2023-06-08 16:31:42 2023-06-08 16:31:38
    ## # ℹ 56 more rows
    ## # ℹ 9 more variables: start_station_name <chr>, start_station_id <chr>,
    ## #   end_station_name <chr>, end_station_id <chr>, start_lat <dbl>,
    ## #   start_lng <dbl>, end_lat <dbl>, end_lng <dbl>, member_casual <chr>
…
