…
There is at least one ride of length zero and there is a ride of length
12136 minutes, that is over 8 days - this might be an outlier and may
cause problems with the analysis. Rides of less than one minute are
unlikely to be genuine rides. Filter to look at the rides that are less
than one minute.

``` r
bike_share_2023_processed %>% 
  filter(ride_length < 1)
```

    ## # A tibble: 55,896 × 16
    ##    ride_id          rideable_type started_at          ended_at           
    ##    <chr>            <chr>         <dttm>              <dttm>             
    ##  1 C56965D2AE5D234E electric_bike 2023-01-01 00:22:03 2023-01-01 00:22:22
    ##  2 BAC999B11574C4FE classic_bike  2023-01-01 00:31:04 2023-01-01 00:31:25
    ##  3 B429DA4976E3859C classic_bike  2023-01-01 00:47:14 2023-01-01 00:47:24
    ##  4 4259FDA946A26352 classic_bike  2023-01-01 00:56:24 2023-01-01 00:56:38
    ##  5 D3A3A18D24281BAC electric_bike 2023-01-01 01:18:59 2023-01-01 01:19:19
    ##  6 4F28A430382131D6 classic_bike  2023-01-01 01:21:01 2023-01-01 01:21:03
    ##  7 9C7651EE0C424805 electric_bike 2023-01-01 01:40:42 2023-01-01 01:41:00
    ##  8 AB2F052E4E79EE00 electric_bike 2023-01-01 01:49:36 2023-01-01 01:50:03
    ##  9 C05839E0454A98CB electric_bike 2023-01-01 01:51:56 2023-01-01 01:52:15
    ## 10 B4321D71C1489037 electric_bike 2023-01-01 01:55:32 2023-01-01 01:55:49
    ## # ℹ 55,886 more rows
    ## # ℹ 12 more variables: start_station_name <chr>, start_station_id <chr>,
    ## #   end_station_name <chr>, end_station_id <chr>, start_lat <dbl>,
    ## #   start_lng <dbl>, end_lat <dbl>, end_lng <dbl>, member_casual <chr>,
    ## #   ride_length <drtn>, day_of_week <dbl>, month <dbl>
…
``` r
bike_share_2023_processed <- bike_share_2023_processed %>% 
  filter(ride_length > 1)
```

Next the data is filtered to see how many rides there are that are more
than 24 hours (1440 minutes).

``` r
bike_share_2023_processed %>% 
  arrange(-ride_length) %>% 
  filter(ride_length > 1440)
```

    ## # A tibble: 133 × 16
    ##    ride_id          rideable_type started_at          ended_at           
    ##    <chr>            <chr>         <dttm>              <dttm>             
    ##  1 59AD7EE868FC6588 classic_bike  2023-05-30 12:48:08 2023-06-07 23:04:26
    ##  2 FA287922CA358CE0 classic_bike  2023-06-03 17:52:15 2023-06-11 11:44:31
    ##  3 47158A16C754A9F4 classic_bike  2023-08-10 22:17:49 2023-08-15 17:09:02
    ##  4 4031082BC503CC84 classic_bike  2023-08-02 17:28:57 2023-08-06 11:07:57
    ##  5 3BC5FFFDF7503DAA classic_bike  2023-06-15 13:28:59 2023-06-18 23:12:06
    ##  6 6786F74C5A6183FB classic_bike  2023-06-18 19:21:22 2023-06-21 10:59:46
    ##  7 D2273A0F45CDD4CC classic_bike  2023-08-18 09:13:48 2023-08-20 16:14:38
    ##  8 A795B5420E15A65B classic_bike  2023-05-10 18:42:11 2023-05-13 00:47:58
    ##  9 280CB8109510E280 classic_bike  2023-07-06 21:34:55 2023-07-08 14:32:46
    ## 10 D88D5192DF6A4536 classic_bike  2023-04-13 17:46:11 2023-04-15 08:55:32
    ## # ℹ 123 more rows
    ## # ℹ 12 more variables: start_station_name <chr>, start_station_id <chr>,
    ## #   end_station_name <chr>, end_station_id <chr>, start_lat <dbl>,
    ## #   start_lng <dbl>, end_lat <dbl>, end_lng <dbl>, member_casual <chr>,
    ## #   ride_length <drtn>, day_of_week <dbl>, month <dbl>
…
